<svg width="28" height="16" viewBox="0 0 28 16" fill="none" xmlns="http://www.w3.org/2000/svg">
<path d="M0.666626 0H27.3333V2.66667H0.666626V0ZM7.33329 6.66667H27.3333V9.33333H7.33329V6.66667ZM15.6666 13.3333H27.3333V16H15.6666V13.3333Z" fill="#737373"/>
</svg>
