[
  {
    "component": "h1",
    "children": "Cuenta comercio",
    "class": ["title", "is-size-3", "has-text-weight-bold"]
  },
  {
    "component": "p",
    "children": "Registrá tu cuenta como comercio y brindá tus descuentos y beneficios.",
    "class": ["mb-5"]
  },
  {
    "label": "Nombre del comercio*",
    "name": "businessName",
    "placeholder": "Ingrese el nombre del comercio o emprendimiento",
    "class": ["has-text-grey"],
    "validation": "required",
    "validation-messages": {
      "required": "Debes ingresar el nombre de tu comercio."
    }
  },
  {
    "label": "Email*",
    "name": "email",
    "placeholder": "Ingrese su correo electrónico",
    "class": ["has-text-grey"],
    "validation": "bail|required|email",
    "validation-messages": {
      "email": "Debes ingresar una dirección de correo válida.",
      "required": "Debes ingresar una dirección de correo válida."
    }
  },
  {
    "label": "Contraseña*",
    "name": "password",
    "type": "password",
    "placeholder": "Ingrese su contraseña",
    "validation": "required",
    "validation-messages": {
      "required": "Debes ingresar una contraseña."
    }
  },
  {
    "label": "Aceptar términos y condiciones",
    "name": "termsAndConditions",
    "type": "checkbox",
    "validation": "required",
    "validation-messages": {
      "required": "Debes aceptar los términos y condiciones."
    }
  },
  {
    "type": "submit",
    "label": "Registrar Cuenta",
    "@click": "click-submit"
  }
]
