[
  {
    "component": "h1",
    "children": "Cuenta Negocio",
    "class": ["title", "is-size-3", "has-text-weight-bold"]
  },
  {
    "component": "p",
    "children": "Registrá tu cuenta como Negocio y podrás disfrutar de todos los beneficios de Ciudad U!",
    "class": ["mb-5"]
  },
  {
    "label": "Ingrese su télefono de contacto*",
    "name": "phone",
    "type": "tel",
    "placeholder": "+54 261 6175 498",
    "validation": "required|starts_with:+",
    "validation-messages": {
      "starts_with": "Debes ingresar la característica de país (ej: +54)",
      "required": "Debes ingresar un número de teléfono."
    }
  },
  {
    "component": "div",

    "class": ["columns"],
    "children": [
      {
        "label": "Nombres*",
        "name": "name",
        "placeholder": "Nombre del Responsable.",
        "class": ["has-text-grey", "column"],
        "validation": "required",
        "validation-messages": {
          "required": "Debes ingresar tu/s nombre/s."
        }
      },
      {
        "label": "Apellidos*",
        "name": "lastName",
        "placeholder": "Apellidos del responsable.",
        "class": ["column"],
        "validation": "required",
        "validation-messages": {
          "required": "Debes ingresar tu/s apellido/s."
        }
      }
    ]
  },
  {
    "label": "Ubicación*",
    "name": "address",
    "placeholder": "9 de Julio al 500",
    "class": ["has-text-grey"],
    "validation": "required",
    "validation-messages": {
      "required": "Debes ingresar la dirección de tu comercio."
    }
  },
  {
    "label": "Link del negocio/emprendimiento*",
    "name": "businessLink",
    "type": "text",
    "placeholder": "https://www.minegocio.com.ar",
    "validation": "url|required",
    "validation-messages": {
      "required": "Debes ingresar un link válido."
    }
  },
  {
    "type": "submit",
    "label": "Enviar información",
    "@click": "click-submit"
  }
]
