<svg width="77" height="77" viewBox="0 0 77 77" fill="none" xmlns="http://www.w3.org/2000/svg">
<path d="M25.2001 57.2C21.6001 57.2 18.7001 56.2 17.1001 54.3C15.4001 52.4 14.6001 49.6 14.6001 45.6V31.2C14.6001 28.5 16.7001 26.8 20.1001 26.8C23.5001 26.8 25.5001 28.4 25.5001 31.2V42.9C25.3001 44.5 25.6001 46.2 26.3001 47.7C26.9001 48.4 27.8001 48.7 28.7001 48.6C29.9001 48.6 31.0001 48.3 32.1001 47.8C33.1001 47.4 34.1001 46.7 34.9001 45.9V31.2C34.9001 28.5 37.0001 26.8 40.5001 26.8C43.9001 26.8 46.0001 28.4 46.0001 31.2V52C46.0001 54.2 45.0001 56.8 40.5001 56.8C37.0001 56.8 35.9001 54.8 35.5001 53.5C34.5001 54.3 33.4001 55.1 32.2001 55.6C30.0001 56.7 27.6001 57.3 25.2001 57.2Z" fill="white"/>
<path d="M56.4 57.2C53.1 57.2 50.9 55.2 50.9 52C50.9 48.8 52.9 46.9 56.4 46.9C59.8 46.9 62 48.9 62 52.1C62.1 55.3 59.9 57.2 56.4 57.2ZM56.6 45.5C54 45.5 52.3 44.1 52.2 41.9L51 21.4C50.9 20.3 51.2 19.2 52 18.4C53.2 17.3 54.8 16.7 56.5 16.8C58.2 16.7 59.8 17.3 61.1 18.4C61.8 19.2 62.2 20.3 62.1 21.4L60.9 41.8C60.7 44.1 59.1 45.5 56.6 45.5Z" fill="white"/>
<path d="M38.3 76.5C17.4 76.5 0.400024 59.4999 0.400024 38.5999C0.400024 17.6999 17.4 0.699951 38.3 0.699951C59.2 0.699951 76.2 17.6999 76.2 38.5999C76.2 59.4999 59.2 76.4 38.3 76.5ZM38.3 2.39995C18.4 2.39995 2.20002 18.5999 2.20002 38.5999C2.20002 58.5999 18.4 74.7 38.3 74.7C58.2 74.7 74.4 58.5 74.4 38.5C74.4 18.6 58.3 2.39995 38.3 2.39995Z" fill="white"/>
</svg>
