<svg width="7" height="5" viewBox="0 0 7 5" fill="none" xmlns="http://www.w3.org/2000/svg">
<path d="M3.19376 4.25215L0.117368 0.833941C-0.0563826 0.640885 0.0806253 0.333252 0.340357 0.333252L6.49314 0.333252C6.75287 0.333252 6.88988 0.640884 6.71613 0.833941L3.63974 4.25215C3.52056 4.38457 3.31293 4.38457 3.19376 4.25215Z" fill="#8692A6"/>
</svg>
